…
We can immediately visualize the entries not successfully converted to numeric (coerced NAs), 81 cases We create a new variable `new_height` containing the cases unsuccesfully converted to numeric(dbl) and therefore stored as `NA`

``` r
reported_heights %>%
  mutate(new_height = as.numeric(height)) %>%
  filter(is.na(new_height)) %>%
  select(3,4)
```

    ## Warning: NAs introduced by coercion

    ## # A tibble: 81 x 2
    ##    height                 new_height
    ##    <chr>                       <dbl>
    ##  1 "5' 4\""                       NA
    ##  2 165cm                          NA
    ##  3 5'7                            NA
    ##  4 >9000                          NA
    ##  5 "5'7\""                        NA
    ##  6 "5'3\""                        NA
    ##  7 5 feet and 8.11 inches         NA
    ##  8 5'11                           NA
    ##  9 5'9''                          NA
    ## 10 5'10''                         NA
    ## # ... with 71 more rows
…
