…
    ## Classes 'spec_tbl_df', 'tbl_df', 'tbl' and 'data.frame': 697 obs. of  2 variables:
    ##  $ person: chr  "Narrator" "Belle" "Townsfolk 1" "Townsfolk 2" ...
    ##  $ line  : chr  "Once upon a time, in a faraway land, a young prince lived in a;shining castle.  Although he had everything his "| __truncated__ "Little town, it's a quiet village;Every day, like the one before;Little town, full of little people;Waking up to say...;" "Bonjour!" "Bonjour!" ...

We have two character vars, `person` and `line`

``` r
beauty %>%
  count(person, sort = T)
```

    ## # A tibble: 58 x 2
    ##    person         n
    ##    <chr>      <int>
    ##  1 Belle        137
    ##  2 Beast         79
    ##  3 Lumiere       67
    ##  4 Gaston        66
    ##  5 Maurice       66
    ##  6 Cogsworth     60
    ##  7 Mrs. Potts    43
    ##  8 Lefou         35
    ##  9 Chip          24
    ## 10 All           16
    ## # ... with 48 more rows
…
